{
	"rules": {
	  "class-name": true,
	  "curly": true,
	  "eofline": false,
	  //"forin": true,
	  "indent": false,
	  "label-position": true,
	  //"max-line-length": [true, 85],                                           
	  "no-arg": true,
	  "no-bitwise": true,
	  "no-console": false,
	  "no-construct": true,
	  "no-constructor-vars": false,
	  "no-debugger": true,
	  "no-duplicate-variable": true,
	  //"no-empty": true,
	  "no-eval": true,
	  "no-string-literal": true,
	  "no-switch-case-fall-through": true,
	  "no-trailing-whitespace": false,
	  "no-unused-expression": true,
	  "no-unused-variable": false,
//	  "no-use-before-declare": true,
	  "no-var-requires": false,
	  "one-line": [
		true,
		"check-open-brace",
		//"check-catch",
		//"check-else",
		"check-whitespace"
	  ],
	  "quotemark": [true, "double"],
	  "semicolon": true,
	  "triple-equals": [true, "allow-null-check"],
	  "typedef": [true,
		//"callSignature",
		"indexSignature",
		"parameter",
		"propertySignature",
		"variableDeclarator",
		"memberVariableDeclarator"],
	  "use-strict": false,
	  // "variable-name": [
		//   true,
		//   "allow-leading-underscore"
	  // ],
	  "whitespace": [
		true,
		"check-branch",
		"check-decl",
		"check-operator",
		"check-separator",
		"check-type"
	  ]
	}
}